^D:\C++\WEEK 10\TICTACTOE\TICTACTOE\MAIN.CPP
D:\C++\WEEK 10\TICTACTOE\TICTACTOE\DEBUG\VC141.PDB
D:\C++\WEEK 10\TICTACTOE\TICTACTOE\DEBUG\VC141.IDB
D:\C++\WEEK 10\TICTACTOE\TICTACTOE\DEBUG\MAIN.OBJ
